1 10 20
100 200 125
201 210 89
900 1000 174
753831 495579 509
355518 622946 470
392419 422486 449
992185 810606 525
260021 927542 525
972972 456621 525
757852 340265 509
830935 548228 509
629842 35376 509
827956 80311 509
981449 22310 525
939237 165919 525
745433 656366 504
8939 254459 443
110595 669406 509
497776 907921 525
90640 636954 509
232628 957543 525
977712 73732 525
963747 891659 507
898757 581146 525
336881 10045 443
72771 857889 525
95665 220874 386
653125 928807 525
943857 353508 525
231531 647350 509
517542 513611 395
178845 383386 443
344160 316714 384
2805 820842 509
498210 802097 509
813905 958594 525
902789 451017 525
808017 733207 468
871573 11537 525
397991 163581 443
537647 766861 509
256338 555266 470
273579 474854 449
67268 96119 351
71405 453506 449
228684 125218 386
121674 190423 383
93417 463348 449
507502 414010 444
593851 456107 470
12538 779800 509
255192 799598 509
531058 197485 470
670079 793886 504
463869 352509 449
480801 400828 449
785480 160659 509
795316 370609 509
176011 734898 509
749378 745208 393
725550 940784 525
619463 247289 470
239195 770098 509
489826 419378 444
97767 571912 470
981891 890944 507
962180 646124 525
965323 819914 525
348733 826572 509
487502 380361 449
248073 459143 449
381763 149535 443
512353 614887 452
144625 385128 443
693111 468940 509
708416 477577 509
376645 523151 470
678008 312437 509
834189 753618 468
449089 884271 525
980928 823908 525
380217 266217 441
220909 220560 249
852072 958348 507
744175 539549 509
614696 713100 509
237930 180678 443
297136 167520 443
775317 391480 509
333789 999783 525
853413 942995 507
847893 871339 419
166264 716873 509
224986 116288 386
719330 136581 509
207763 995996 525
318445 685041 509
348698 349672 304
299415 716872 509
567862 640574 509
603629 395463 470
380822 722702 509
950561 863414 507
85070 134283 354
909825 689498 525
823381 362044 509
133411 226047 386
978568 314227 525
873026 757810 525
796536 190480 509
177952 226583 386
483135 43211 449
845591 875543 432
275224 587693 470
279884 372985 441
147461 237137 443
902041 847270 445
883734 914158 476
653535 793094 504
215789 921513 525
433050 993754 525
611470 42649 470
17122 444931 449
81139 86603 320
128412 762548 509
63216 291918 443
836124 710607 468
48417 360762 443
1 1 1
2 1 2
1 2 2
500000 500000 152
