510640 260512 449
10735 324676 443
564243 438511 470
485149 208284 449
838315 21038 525
590276 583856 372
297526 407148 441
21962 428469 449
376688 667096 509
477509 242344 449
416134 346877 449
404689 551351 470
781588 574406 509
983518 60432 525
10918 423232 449
251369 496959 449
615487 504680 470
37865 6609 324
40898 111270 354
413818 916700 525
97706 990345 525
928764 723093 525
650871 473605 509
957859 524933 525
289984 670363 509
909943 774275 525
836222 28435 509
291343 883960 525
348396 920852 525
295729 244698 407
431436 542954 470
388592 785850 509
565507 587333 434
720230 382898 509
13274 612980 470
362422 556493 470
803627 119981 509
66668 461157 449
623060 656493 509
268226 701728 509
588759 278635 470
383226 455498 449
952256 813981 525
83825 102600 341
309423 132362 443
368050 510810 449
741598 733293 424
798589 643116 504
406809 992605 525
39125 947432 525
114523 592839 470
997384 945143 458
564294 961997 525
424621 718719 509
345784 596179 470
144291 757500 509
911373 304377 525
945338 279703 525
954278 24554 525
647282 895523 525
483210 828273 509
440630 735973 509
981445 231386 525
429178 322920 449
634253 19878 509
30638 89448 351
492348 348825 449
324461 65979 443
923476 18970 525
253226 567673 470
911803 314854 525
199212 27287 383
57571 258213 443
206055 920510 525
685756 835915 504
730859 526239 509
411142 314045 449
343075 846086 525
537594 417468 470
161838 254689 443
924729 764394 525
145323 516853 470
694107 608286 509
787328 314484 509
533 653150 509
360726 845749 525
920098 59687 525
24099 542022 470
499035 830046 509
840324 110832 525
559417 31095 470
357680 929428 525
418673 590761 470
488621 401394 449
545273 666491 509
980288 872502 507
20616 130995 354
141932 286384 443
368672 689305 509
522593 974171 525
42307 852811 525
998594 533766 525
915058 174623 525
420947 221064 449
796058 507241 509
172123 494138 449
324038 847603 525
498841 332627 449
146882 409925 443
692261 285014 509
147931 378183 443
682284 360689 509
78660 99402 338
207228 900004 525
615107 340126 470
127780 115210 349
566612 428604 470
211161 390541 443
234617 448317 449
758784 836488 468
294025 827006 509
100495 968129 525
853982 888227 445
979592 306994 525
403729 999398 525
633400 595460 509
488472 44186 449
358710 483131 449
761089 559223 509
529537 144875 470
373689 394437 436
233457 710674 509
956435 316803 525
764043 523881 509
869858 220174 525
840162 150962 525
694058 761465 504
990588 171349 525
979587 992820 427
105561 337679 443
213441 21630 383
278620 116742 443
992556 768741 525
893686 319130 525
562129 778749 509
969537 70181 525
515700 806295 509
892611 227946 525
129417 791831 509
701160 677578 442
